6.1 Standard analysis (R) | Metacell Tutorial
…
We select the top markers for each cell-type:

# Top markers (select top markers of each metacell population)
MC.seurat.top.markers <- MC.seurat.all.markers %>%
   group_by(cluster) %>%
    slice_max(n = 5, order_by = avg_log2FC)

MC.seurat.top.markers
#> # A tibble: 35 × 7
#> # Groups:   cluster [7]
#>       p_val avg_log2FC pct.1 pct.2 p_val_adj cluster         gene  
#>       <dbl>      <dbl> <dbl> <dbl>     <dbl> <fct>           <chr> 
#>  1 6.34e-11       4.09     1 0.543  2.08e- 6 B cells         CD79A 
#>  2 3.56e- 5       3.70     1 0.223  1   e+ 0 B cells         IGLL5 
#>  3 1.60e-12       3.40     1 0.755  5.24e- 8 B cells         CD79B 
#>  4 3.70e-19       3.36     1 0.606  1.21e-14 B cells         MS4A1 
#>  5 2.16e- 6       3.12     1 0.383  7.08e- 2 B cells         TCL1A 
#>  6 1.28e-23       4.79     1 0.79   4.20e-19 CD14+ Monocytes S100A8
#>  7 4.10e-36       4.51     1 0.926  1.34e-31 CD14+ Monocytes S100A9
#>  8 4.35e-42       3.38     1 1      1.42e-37 CD14+ Monocytes LYZ   
#>  9 2.36e-38       2.90     1 0.58   7.72e-34 CD14+ Monocytes LGALS2
#> 10 2.26e-19       2.79     1 0.395  7.39e-15 CD14+ Monocytes CD14  
#> # ℹ 25 more rows
…
